{
	"type_quiz": {
		"id": 1,
		"description": "manager"
	},
	"quiz": [
		{
			"id": "q1",
			"question": "1. Escolha abaixo apenas um dos comportamentos que precisa ser desenvolvido ou melhorado.",
			"options": [
				{
					"id": 1,
          "description": "Adequa sua linguagem verbal (escrita e falada) de forma simples e objetiva, sendo compreendido de forma fácil pelo cliente.",
          "frequency": "A",
					"competence": [
						{
							"id": 1,
							"description": "Communication"
						}
					]
				},
				
				{
					"id": 2,
          "description": "Conhece a realidade de cada cliente, mantendo um histórico cronológico de informações e acompanhamento da evolução da conta.",
          "frequency": "A",
					"competence": [
						{
							"id": 2,
							"description": "Customer Focus"
						}
					]
				}
			]
		},
		
		{
			"id": "q2",
			"question": "2. Escolha abaixo apenas um dos comportamentos que precisa ser desenvolvido ou melhorado.",
			"options": [
				{
					"id": 1,
          "description": "Age de forma transparente e se comunica de forma clara com todos, não gerando interpretações duvidosas.",
          "frequency": "B",
					"competence": [
						{
							"id": 1,
							"description": "Communication"
						}
					]
				},
				
				{
					"id": 2,
          "description": "Conhece os objetivos comerciais e financeiros dos clientes, entendo sua evolução e propondo melhorias se necessário.",
          "frequency": "A",
					"competence": [
						{
							"id": 2,
							"description": "Customer Focus"
						}
					]
				}
			]
		},
		
		{
			"id": "q3",
			"question": "3. Escolha abaixo apenas um dos comportamentos que precisa ser desenvolvido ou melhorado.",
			"options": [
				{
					"id": 1,
          "description": "É aberto e disponível sempre que necessário, garantindo que as conversas sejam feitas naturalmente no dia a dia e não gerem 'gargalos' e/ou 'ruídos' de comunicação.",
          "frequency": "C",
					"competence": [
						{
							"id": 1,
							"description": "Communication"
						}
					]
				},
				
				{
					"id": 2,
          "description": "Acompanha a operação dos clientes, entendendo sua forma de gestão, estrutura e organização da rotina diária.",
          "frequency": "C",
					"competence": [
						{
							"id": 2,
							"description": "Customer Focus"
						}
					]
				}
			]
    },

    {
			"id": "q4",
			"question": "4. Escolha abaixo apenas um dos comportamentos que precisa ser desenvolvido ou melhorado.",
			"options": [
				{
					"id": 1,
          "description": "É paciente para ouvir e compreender seu interlocutor, fazendo inclusive perguntas para se aprofundar na linha de raciocínio do outro.",
          "frequency": "D",
					"competence": [
						{
							"id": 1,
							"description": "Communication"
						}
					]
				},
				
				{
					"id": 2,
          "description": "Consegue diferenciar atendimento e relacionamento, tendo uma relação de confiança bem definida com os clientes e sendo visto por ele como um verdadeiro parceiro.",
          "frequency": "D",
					"competence": [
						{
							"id": 2,
							"description": "Customer Focus"
						}
					]
				}
			]
    },
    
    {
			"id": "q5",
			"question": "5. Escolha abaixo apenas um dos comportamentos que precisa ser desenvolvido ou melhorado.",
			"options": [
				{
					"id": 1,
          "description": "Compartilha o conhecimento e as informações não confidenciais de forma proativa com todos que possam se beneficiar delas.",
          "frequency": "E",
					"competence": [
						{
							"id": 1,
							"description": "Communication"
						}
					]
				},
				
				{
					"id": 2,
          "description": "Consegue diferenciar uma opinião de uma sugestão de um cliente, endereçando internamente sempre que for pertinente tal recomendação.",
          "frequency": "E",
					"competence": [
						{
							"id": 2,
							"description": "Customer Focus"
						}
					]
				}
			]
    },
    
    {
			"id": "q6",
			"question": "6. Escolha abaixo apenas um dos comportamentos que precisa ser desenvolvido ou melhorado.",
			"options": [
				{
					"id": 1,
          "description": "Pensa e elabora sua comunicação, exemplo: apresentações, de modo que transmita um bom encadeamento de ideias, atingindo seu objetivo.",
          "frequency": "F",
					"competence": [
						{
							"id": 1,
							"description": "Communication"
						}
					]
				},
				
				{
					"id": 2,
          "description": "Conhece bem os clientes e consegue antever possíveis desafios e riscos que podem atrapalhar os objetivos comerciais/financeiros mútuos.",
          "frequency": "G",
					"competence": [
						{
							"id": 2,
							"description": "Customer Focus"
						}
					]
				}
			]
    },
    
    {
			"id": "q7",
			"question": "7. Escolha abaixo apenas um dos comportamentos que precisa ser desenvolvido ou melhorado.",
			"options": [
				{
					"id": 1,
          "description": "Possui empatia e consegue se adaptar ao interlocutor com que se refere a sua forma de pensar e sentir.",
          "frequency": "G",
					"competence": [
						{
							"id": 1,
							"description": "Communication"
						}
					]
				},
				
				{
					"id": 2,
          "description": "Escuta ativamente, transmitindo sempre interesse pelo conteúdo e necessidades necessidades, sugestões e feedbacks do cliente.",
          "frequency": "F",
					"competence": [
						{
							"id": 2,
							"description": "Customer Focus"
						}
					]
				}
			]
    },
    
    {
			"id": "q8",
			"question": "8. Escolha abaixo apenas um dos comportamentos que precisa ser desenvolvido ou melhorado.",
			"options": [
				{
					"id": 1,
          "description": "Reflete antes de se comunicar de forma mais formal, exemplos: e-mail, reuniões, se está utilizando a melhor abordagem, criando uma 'história' que envolva e seja de fácil compreensão para a audiência.",
          "frequency": "H",
					"competence": [
						{
							"id": 1,
							"description": "Communication"
						}
					]
				},
				
				{
					"id": 2,
          "description": "Mantém regularidade em reuniões formais, com pautas relevantes para a empresa e cliente, conseguindo sempre melhorar nosso relacionamento a partir desses encontros.",
          "frequency": "H",
					"competence": [
						{
							"id": 2,
							"description": "Customer Focus"
						}
					]
				}
			]
    },
    
    {
			"id": "q9",
			"question": "9. Escolha abaixo apenas um dos comportamentos que precisa ser desenvolvido ou melhorado.",
			"options": [
				{
					"id": 1,
          "description": "Utiliza as emoções positivamente na sua forma de comunicação, trazendo sempre um equilíbrio entre o desafio e o suporte.",
          "frequency": "I",
					"competence": [
						{
							"id": 1,
							"description": "Communication"
						}
					]
				},
				
				{
					"id": 2,
          "description": "Conhece bem os clientes e consegue antever possíveis desafios e riscos que podem atrapalhar os objetivos comerciais/financeiros mútuos.",
          "frequency": "G",
					"competence": [
						{
							"id": 2,
							"description": "Customer Focus"
						}
					]
				}
			]
    },
    
    {
			"id": "q10",
			"question": "10. Escolha abaixo apenas um dos comportamentos que precisa ser desenvolvido ou melhorado.",
			"options": [
				{
					"id": 1,
          "description": "Conhece os objetivos comerciais e financeiros dos clientes, entendo sua evolução e propondo melhorias se necessário.",
          "frequency": "B",
					"competence": [
						{
							"id": 2,
							"description": "Customer Focus"
						}
					]
				},
				
				{
					"id": 2,
          "description": "Conhece o perfil dos principais clientes e consegue perceber em suas análises mudanças de comportamentos de consumo, identificando se é algo pontual ou um indicativo de queda no volume de compras do cliente.",
          "frequency": "A",
					"competence": [
						{
							"id": 3,
							"description": "Strategic Business Vision"
						}
					]
				}
			]
    },
    
    {
			"id": "q11",
			"question": "11. Escolha abaixo apenas um dos comportamentos que precisa ser desenvolvido ou melhorado.",
			"options": [
				{
					"id": 1,
          "description": "Possui inteligência emocional para não desanimar e/ou reclamar das ações que não atingiram seu objetivo.",
          "frequency": "A",
					"competence": [
						{
							"id": 4,
							"description": "Negotiation"
						}
					]
				},
				
				{
					"id": 2,
          "description": "Planeja novas ações para o aumento do sell out, defendendo inclusive possíveis investimentos se necessários.",
          "frequency": "F",
					"competence": [
						{
							"id": 3,
							"description": "Strategic Business Vision"
						}
					]
				}
			]
    },
    
    {
			"id": "q12",
			"question": "12. Escolha abaixo apenas um dos comportamentos que precisa ser desenvolvido ou melhorado.",
			"options": [
				{
					"id": 1,
          "description": "Argumenta-se de forma objetiva e consegue fazer o interlocutor refletir sobre suas próprias necessidades e possíveis ganhos durante a conversa.",
          "frequency": "B",
					"competence": [
						{
							"id": 4,
							"description": "Negotiation"
						}
					]
				},
				
				{
					"id": 2,
          "description": "Cria argumentos e condições que viabilizam a retomada do poder de compra do cliente. É flexível em sair do seu padrão de vendas para se adaptar a realidade do cliente, não comprometendo as regras e processos internos.",
          "frequency": "H",
					"competence": [
						{
							"id": 3,
							"description": "Strategic Business Vision"
						}
					]
				}
			]
    },
    
    {
			"id": "q13",
			"question": "13. Escolha abaixo apenas um dos comportamentos que precisa ser desenvolvido ou melhorado.",
			"options": [
				{
					"id": 1,
          "description": "Possui foco na solução e não no problema, mantendo uma postura otimista e flexível.",
          "frequency": "C",
					"competence": [
						{
							"id": 4,
							"description": "Negotiation"
						}
					]
				},
				
				{
					"id": 2,
          "description": "Reverte bem produtos de baixo giro, fazendo ações específicas e mensuráveis para não gerar possíveis prejuízos de perda de estoque e rentabilidade.",
          "frequency": "D",
					"competence": [
						{
							"id": 3,
							"description": "Strategic Business Vision"
						}
					]
				}
			]
    },

    {
			"id": "q14",
			"question": "14. Escolha abaixo apenas um dos comportamentos que precisa ser desenvolvido ou melhorado.",
			"options": [
				{
					"id": 1,
          "description": "Possui argumentos que focam em benefícios e vantagens, e não somente em características e preço promocional.",
          "frequency": "D",
					"competence": [
						{
							"id": 4,
							"description": "Negotiation"
						}
					]
				},
				
				{
					"id": 2,
          "description": "Possui uma boa rede de relacionamento que ajuda tanto dentro como fora da empresa para conquistar os objetivos.",
          "frequency": "A",
					"competence": [
						{
							"id": 5,
							"description": "Stakeholder Management"
						}
					]
				}
			]
    },
    
    {
			"id": "q15",
			"question": "15. Escolha abaixo apenas um dos comportamentos que precisa ser desenvolvido ou melhorado.",
			"options": [
				{
					"id": 1,
          "description": "Propõe e ajusta condições comerciais que trazem o nosso diferencial em relação a concorrência.",
          "frequency": "E",
					"competence": [
						{
							"id": 4,
							"description": "Negotiation"
						}
					]
				},
				
				{
					"id": 2,
          "description": "Planeja atividades especificando o que, como e o por que priorizar tais ações no tempo correto.",
          "frequency": "B",
					"competence": [
						{
							"id": 3,
							"description": "Strategic Business Vision"
						}
					]
				}
			]
    },
    
    {
			"id": "q16",
			"question": "16. Escolha abaixo apenas um dos comportamentos que precisa ser desenvolvido ou melhorado.",
			"options": [
				{
					"id": 1,
          "description": "Domina as ferramentas (Roambi, Pharmalink, outras) de forma que consiga utilizar para melhorar suas análises, recomendações e decisões.",
          "frequency": "G",
					"competence": [
						{
							"id": 3,
							"description": "Strategic Business Vision"
						}
					]
				},
				
				{
					"id": 2,
          "description": "Propõe serviços que sejam de interesse daqueles que tem o poder de decidir durante uma negociação, mostrando nosso diferencial.",
          "frequency": "C",
					"competence": [
						{
							"id": 5,
							"description": "Stakeholder Management"
						}
					]
				}
			]
    },
    
    {
			"id": "q17",
			"question": "17. Escolha abaixo apenas um dos comportamentos que precisa ser desenvolvido ou melhorado.",
			"options": [
				{
					"id": 1,
          "description": "Garante que as campanhas estarão dentro das regras de conformidade da empresa (compliance) e terão responsáveis na ponta para garantir a correta execução.",
          "frequency": "C",
					"competence": [
						{
							"id": 3,
							"description": "Strategic Business Vision"
						}
					]
				},
				
				{
					"id": 2,
          "description": "Possui informações personalizadas de cada cliente que são utilizadas sistematicamente na forma de comunicar e negociar.",
          "frequency": "F",
					"competence": [
						{
							"id": 5,
							"description": "Stakeholder Management"
						}
					]
				}
			]
    },
    
    {
			"id": "q18",
			"question": "18. Escolha abaixo apenas um dos comportamentos que precisa ser desenvolvido ou melhorado.",
			"options": [
				{
					"id": 1,
          "description": "Reverte bem produtos de baixo giro, fazendo ações específicas e mensuráveis para não gerar possíveis prejuízos de perda de estoque e rentabilidade.",
          "frequency": "D",
					"competence": [
						{
							"id": 3,
							"description": "Strategic Business Vision"
						}
					]
				},
				
				{
					"id": 2,
          "description": "Mantém regularidade em reuniões formais, com pautas relevantes para a empresa e cliente, conseguindo sempre melhorar nosso relacionamento a partir desses encontros.",
          "frequency": "H",
					"competence": [
						{
              "id": 2,
              "description": "Customer Focus"
            }
					]
				}
			]
    },
    
    {
			"id": "q19",
			"question": "19. Escolha abaixo apenas um dos comportamentos que precisa ser desenvolvido ou melhorado.",
			"options": [
				{
					"id": 1,
          "description": "Propõe junto aos clientes ações, exemplo: uma campanha, sendo muito coerente com o foco e as metas da empresa.",
          "frequency": "E",
					"competence": [
						{
							"id": 3,
							"description": "Strategic Business Vision"
						}
					]
				},
				
				{
					"id": 2,
          "description": "Consegue correlacionar na sua estratégia de gestão de contas com cada interlocutor, sabendo quem e como abordar cada um dependendo do tema/produto.",
          "frequency": "C",
					"competence": [
						{
              "id": 5,
              "description": "Stakeholder Management"
            }
					]
				}
			]
    },
    
    {
			"id": "q20",
			"question": "20. Escolha abaixo apenas um dos comportamentos que precisa ser desenvolvido ou melhorado.",
			"options": [
				{
					"id": 1,
          "description": "Domina as ferramentas (Roambi, Pharmalink, outras) de forma que consiga utilizar para melhorar suas análises, recomendações e decisões.",
          "frequency": "G",
					"competence": [
						{
							"id": 3,
							"description": "Strategic Business Vision"
						}
					]
				},
				
				{
					"id": 2,
          "description": "Possui informações que cruza possíveis riscos com o perfil do interlocutor que tem influência e poder de decisão.",
          "frequency": "D",
					"competence": [
						{
              "id": 5,
              "description": "Stakeholder Management"
            }
					]
				}
			]
    },
    
    {
			"id": "q21",
			"question": "21. Escolha abaixo apenas um dos comportamentos que precisa ser desenvolvido ou melhorado.",
			"options": [
				{
					"id": 1,
          "description": "Segue a rotina de 'campo' para identificar novas formas de fazer as coisas, seja um processo, procedimento ou uma prática de trabalho.",
          "frequency": "A",
					"competence": [
						{
              "id": 6,
              "description": "Planning"
            }
					]
				},
				
				{
					"id": 2,
          "description": "Possui mapeado de forma estruturada todos os interlocutores da qual converso e negocio, sabendo o grau de influência e poder de decisão de cada um.",
          "frequency": "E",
					"competence": [
						{
              "id": 5,
              "description": "Stakeholder Management"
            }
					]
				}
			]
    },

    {
			"id": "q22",
			"question": "22. Escolha abaixo apenas um dos comportamentos que precisa ser desenvolvido ou melhorado.",
			"options": [
				{
					"id": 1,
          "description": "Busca suporte para tomar decisões mais complexas e que fogem sua autonomia e responsabilidades.",
          "frequency": "D",
					"competence": [
						{
              "id": 6,
              "description": "Planning"
            }
					]
				},
				
				{
					"id": 2,
          "description": "Adequa sua linguagem verbal (escrita e falada) de forma simples e objetiva, sendo compreendido de forma fácil pelo cliente.",
          "frequency": "A",
					"competence": [
						{
              "id": 1,
              "description": "Communication"
            }
					]
				}
			]
    },
    
    {
			"id": "q23",
			"question": "23. Escolha abaixo apenas um dos comportamentos que precisa ser desenvolvido ou melhorado.",
			"options": [
				{
					"id": 1,
          "description": "Conhece bem as informações técnicas e argumentos de vendas do produto (benefícios e diferenciais), sendo sensível sempre a sazonalidade do mercado e às grades promocionais vigentes.",
          "frequency": "C",
					"competence": [
						{
              "id": 6,
              "description": "Planning"
            }
					]
				},
				
				{
					"id": 2,
          "description": "Age de forma transparente e se comunica de forma clara com todos, não gerando interpretações duvidosas.",
          "frequency": "B",
					"competence": [
						{
              "id": 1,
              "description": "Communication"
            }
					]
				}
			]
    },
    
    {
			"id": "q24",
			"question": "24. Escolha abaixo apenas um dos comportamentos que precisa ser desenvolvido ou melhorado.",
			"options": [
				{
					"id": 1,
          "description": "Tem disciplina e senso de organização do seu trabalho para cumprir prazos, orçamentos e regras internas.",
          "frequency": "E",
					"competence": [
						{
              "id": 6,
              "description": "Planning"
            }
					]
				},
				
				{
					"id": 2,
          "description": "É aberto e disponível sempre que necessário, garantindo que as conversas sejam feitas naturalmente no dia a dia e não gerem 'gargalos' e/ou 'ruídos' de comunicação.",
          "frequency": "C",
					"competence": [
						{
              "id": 1,
              "description": "Communication"
            }
					]
				}
			]
    },
    
    {
			"id": "q25",
			"question": "25. Escolha abaixo apenas um dos comportamentos que precisa ser desenvolvido ou melhorado.",
			"options": [
				{
					"id": 1,
          "description": "Possui uma forma de gerenciar suas contas, garantindo que o cliente seja atendido, tendo sempre em mente que o tempo e os recursos devem ser proporcionais ao potencial retorno desse investimento.",
          "frequency": "B",
					"competence": [
						{
              "id": 6,
              "description": "Planning"
            }
					]
				},
				
				{
					"id": 2,
          "description": "É paciente para ouvir e compreender seu interlocutor, fazendo inclusive perguntas para se aprofundar na linha de raciocínio do outro.",
          "frequency": "D",
					"competence": [
						{
              "id": 1,
              "description": "Communication"
            }
					]
				}
			]
    },
    
    {
			"id": "q26",
			"question": "26. Escolha abaixo apenas um dos comportamentos que precisa ser desenvolvido ou melhorado.",
			"options": [
				{
					"id": 1,
          "description": "Gerencio algumas exceções , garantindo que o cliente seja atendido, tendo sempre em mente o equilíbrio entre os processos internos e a flexibilização possível.",
          "frequency": "F",
					"competence": [
						{
              "id": 6,
              "description": "Planning"
            }
					]
				},
				
				{
					"id": 2,
          "description": "Compartilha o conhecimento e as informações não confidenciais de forma proativa com todos que possam se beneficiar delas.",
          "frequency": "E",
					"competence": [
						{
              "id": 1,
              "description": "Communication"
            }
					]
				}
			]
    },
    
    {
			"id": "q27",
			"question": "27. Escolha abaixo apenas um dos comportamentos que precisa ser desenvolvido ou melhorado.",
			"options": [
				{
					"id": 1,
          "description": "Tem disciplina e senso de organização do seu trabalho para cumprir prazos, orçamentos e regras internas.",
          "frequency": "E",
					"competence": [
						{
              "id": 6,
              "description": "Planning"
            }
					]
				},
				
				{
					"id": 2,
          "description": "Pensa e elabora sua comunicação, exemplo: apresentações, de modo que transmita um bom encadeamento de ideias, atingindo seu objetivo.",
          "frequency": "F",
					"competence": [
						{
              "id": 1,
              "description": "Communication"
            }
					]
				}
			]
    },
    
    {
			"id": "q28",
			"question": "28. Escolha abaixo apenas um dos comportamentos que precisa ser desenvolvido ou melhorado.",
			"options": [
				{
					"id": 1,
          "description": "Busca suporte para tomar decisões mais complexas e que fogem sua autonomia e responsabilidades.",
          "frequency": "D",
					"competence": [
						{
              "id": 6,
              "description": "Planning"
            }
					]
				},
				
				{
					"id": 2,
          "description": "Possui empatia e consegue se adaptar ao interlocutor com que se refere a sua forma de pensar e sentir.",
          "frequency": "G",
					"competence": [
						{
              "id": 1,
              "description": "Communication"
            }
					]
				}
			]
    },
    
    {
			"id": "q29",
			"question": "29. Escolha abaixo apenas um dos comportamentos que precisa ser desenvolvido ou melhorado.",
			"options": [
				{
					"id": 1,
          "description": "Conhece bem as informações técnicas e argumentos de vendas do produto (benefícios e diferenciais), sendo sensível sempre a sazonalidade do mercado e às grades promocionais vigentes.",
          "frequency": "C",
					"competence": [
						{
              "id": 6,
              "description": "Planning"
            }
					]
				},
				
				{
					"id": 2,
          "description": "Reflete antes de se comunicar de forma mais formal, exemplos: e-mail, reuniões, se está utilizando a melhor abordagem, criando uma 'história' que envolva e seja de fácil compreensão para a audiência.",
          "frequency": "H",
					"competence": [
						{
              "id": 1,
              "description": "Communication"
            }
					]
				}
			]
    },
    
    {
			"id": "q30",
			"question": "30. Escolha abaixo apenas um dos comportamentos que precisa ser desenvolvido ou melhorado.",
			"options": [
				{
					"id": 1,
          "description": "Apresenta motivação mesmo em situações de conflitos, sendo resiliente e agindo racionalmente.",
          "frequency": "F",
					"competence": [
						{
              "id": 4,
              "description": "Negotiation"
            }
					]
				},
				
				{
					"id": 2,
          "description": "Conhece a realidade de cada cliente, mantendo um histórico cronológico de informações e acompanhamento da evolução da conta.",
          "frequency": "A",
					"competence": [
						{
              "id": 2,
              "description": "Customer Focus"
            }
					]
				}
			]
    },
    
    {
			"id": "q31",
			"question": "31. Escolha abaixo apenas um dos comportamentos que precisa ser desenvolvido ou melhorado.",
			"options": [
				{
					"id": 1,
          "description": "Argumenta-se de forma objetiva e consegue fazer o interlocutor refletir sobre suas próprias necessidades e possíveis ganhos durante a conversa.",
          "frequency": "B",
					"competence": [
						{
              "id": 4,
              "description": "Negotiation"
            }
					]
				},
				
				{
					"id": 2,
          "description": "Escuta ativamente, transmitindo sempre interesse pelo conteúdo e necessidades necessidades, sugestões e feedbacks do cliente.",
          "frequency": "F",
					"competence": [
						{
              "id": 2,
              "description": "Customer Focus"
            }
					]
				}
			]
    },
    
    {
			"id": "q32",
			"question": "32. Escolha abaixo apenas um dos comportamentos que precisa ser desenvolvido ou melhorado.",
			"options": [
				{
					"id": 1,
          "description": "Segue a rotina de 'campo' para identificar novas formas de fazer as coisas, seja um processo, procedimento ou uma prática de trabalho.",
          "frequency": "A",
					"competence": [
						{
              "id": 6,
              "description": "Planning"
            }
					]
				},
				
				{
					"id": 2,
          "description": "Acompanha a operação dos clientes, entendendo sua forma de gestão, estrutura e organização da rotina diária.",
          "frequency": "C",
					"competence": [
						{
              "id": 2,
              "description": "Customer Focus"
            }
					]
				}
			]
    },
    
    {
			"id": "q33",
			"question": "33. Escolha abaixo apenas um dos comportamentos que precisa ser desenvolvido ou melhorado.",
			"options": [
				{
					"id": 1,
          "description": "Possui argumentos que focam em benefícios e vantagens, e não somente em características e preço promocional.",
          "frequency": "D",
					"competence": [
						{
              "id": 4,
              "description": "Negotiation"
            }
					]
				},
				
				{
					"id": 2,
          "description": "Consegue diferenciar atendimento e relacionamento, tendo uma relação de confiança bem definida com os clientes e sendo visto por ele como um verdadeiro parceiro.",
          "frequency": "D",
					"competence": [
						{
              "id": 2,
              "description": "Customer Focus"
            }
					]
				}
			]
    },
    
    {
			"id": "q34",
			"question": "34. Escolha abaixo apenas um dos comportamentos que precisa ser desenvolvido ou melhorado.",
			"options": [
				{
					"id": 1,
          "description": "Propõe e ajusta condições comerciais que trazem o nosso diferencial em relação a concorrência.",
          "frequency": "E",
					"competence": [
						{
              "id": 4,
              "description": "Negotiation"
            }
					]
				},
				
				{
					"id": 2,
          "description": "Consegue diferenciar uma opinião de uma sugestão de um cliente, endereçando internamente sempre que for pertinente tal recomendação.",
          "frequency": "E",
					"competence": [
						{
              "id": 2,
              "description": "Customer Focus"
            }
					]
				}
			]
    },
    
    {
			"id": "q35",
			"question": "35. Escolha abaixo apenas um dos comportamentos que precisa ser desenvolvido ou melhorado.",
			"options": [
				{
					"id": 1,
          "description": "É visto como um líder referência em seus comportamentos, mantendo uma relação saudável com seu time.",
          "frequency": "C",
					"competence": [
						{
              "id": 7,
              "description": "People Management"
            }
					]
				},
				
				{
					"id": 2,
          "description": "Conhece o perfil dos principais clientes e consegue perceber em suas análises mudanças de comportamentos de consumo, identificando se é algo pontual ou um indicativo de queda no volume de compras do cliente.",
          "frequency": "A",
					"competence": [
						{
              "id": 3,
              "description": "Strategic Business Vision"
            }
					]
				}
			]
    },
    
    {
			"id": "q36",
			"question": "36. Escolha abaixo apenas um dos comportamentos que precisa ser desenvolvido ou melhorado.",
			"options": [
				{
					"id": 1,
          "description": "Confia na maioria das vezes, dando sempre mais autonomia e responsabilidades para pessoas da minha equipe que percebo estarem preparadas.",
          "frequency": "D",
					"competence": [
						{
              "id": 7,
              "description": "People Management"
            }
					]
				},
				
				{
					"id": 2,
          "description": "Possui informações personalizadas de cada cliente que são utilizadas sistematicamente na forma de comunicar e negociar.",
          "frequency": "F",
					"competence": [
						{
              "id": 5,
              "description": "Stakeholder Management"
            }
					]
				}
			]
    },
    
    {
			"id": "q37",
			"question": "37. Escolha abaixo apenas um dos comportamentos que precisa ser desenvolvido ou melhorado.",
			"options": [
				{
					"id": 1,
          "description": "Conhece os pontos fortes e fracos de cada um do time, mantendo conversas mais claras para o desenvolvimento individual.",
          "frequency": "E",
					"competence": [
						{
              "id": 7,
              "description": "People Management"
            }
					]
				},
				
				{
					"id": 2,
          "description": "Possui mapeado de forma estruturada todos os interlocutores da qual converso e negocio, sabendo o grau de influência e poder de decisão de cada um.",
          "frequency": "E",
					"competence": [
						{
              "id": 5,
              "description": "Stakeholder Management"
            }
					]
				}
			]
    },
    
    {
			"id": "q38",
			"question": "38. Escolha abaixo apenas um dos comportamentos que precisa ser desenvolvido ou melhorado.",
			"options": [
				{
					"id": 1,
          "description": "Mantém um ambiente de confiança e transparência, não tendo em sua gestão problemas relacionados a fofocas ou competitividade que segrega o time.",
          "frequency": "F",
					"competence": [
						{
              "id": 7,
              "description": "People Management"
            }
					]
				},
				
				{
					"id": 2,
          "description": "Possui uma boa rede de relacionamento que ajuda tanto dentro como fora da empresa para conquistar os objetivos.",
          "frequency": "A",
					"competence": [
						{
              "id": 5,
              "description": "Stakeholder Management"
            }
					]
				}
			]
    },
    
    {
			"id": "q39",
			"question": "39. Escolha abaixo apenas um dos comportamentos que precisa ser desenvolvido ou melhorado.",
			"options": [
				{
					"id": 1,
          "description": "Dimensiona para sua equipe as tarefas, desafios e objetivos de acordo com as capacidades individuais, equilibrando o 'sair da zona de conforto' com 'desafios de aprendizagem'.",
          "frequency": "B",
					"competence": [
						{
              "id": 7,
              "description": "People Management"
            }
					]
				},
				
				{
					"id": 2,
          "description": "Planeja novas ações para o aumento do sell out, defendendo inclusive possíveis investimentos se necessários.",
          "frequency": "F",
					"competence": [
						{
              "id": 3,
              "description": "Strategic Business Vision"
            }
					]
				}
			]
    },
    
    {
			"id": "q40",
			"question": "40. Escolha abaixo apenas um dos comportamentos que precisa ser desenvolvido ou melhorado.",
			"options": [
				{
					"id": 1,
          "description": "É visto como um líder referência em seus comportamentos, mantendo uma relação saudável com seu time.",
          "frequency": "C",
					"competence": [
						{
              "id": 7,
              "description": "People Management"
            }
					]
				},
				
				{
					"id": 2,
          "description": "Planeja atividades especificando o que, como e o por que priorizar tais ações no tempo correto.",
          "frequency": "B",
					"competence": [
						{
              "id": 3,
              "description": "Strategic Business Vision"
            }
					]
				}
			]
    },
    
    {
			"id": "q41",
			"question": "41. Escolha abaixo apenas um dos comportamentos que precisa ser desenvolvido ou melhorado.",
			"options": [
				{
					"id": 1,
          "description": "Em seus feedbacks, consegue deixar claro o que é esperado de cada um do seu time, inclusive os desafiando por meio de objetivos individuais.",
          "frequency": "A",
					"competence": [
						{
              "id": 7,
              "description": "People Management"
            }
					]
				},
				
				{
					"id": 2,
          "description": "Possui um forma de gerenciar suas contas, garantindo que o cliente seja atendido, tendo sempre em mente que o tempo e os recursos devem ser proporcionais ao potencial retorno desse investimento.",
          "frequency": "B",
					"competence": [
						{
              "id": 6,
              "description": "Planning"
            }
					]
				}
			]
    },
    
    {
			"id": "q42",
			"question": "42. Escolha abaixo apenas um dos comportamentos que precisa ser desenvolvido ou melhorado.",
			"options": [
				{
					"id": 1,
          "description": "Confia na maioria das vezes, dando sempre mais autonomia e responsabilidades para pessoas da minha equipe que percebo estarem preparadas.",
          "frequency": "D",
					"competence": [
						{
              "id": 7,
              "description": "People Management"
            }
					]
				},
				
				{
					"id": 2,
          "description": "Garante que as campanhas estarão dentro das regras de conformidade da empresa (compliance) e terão responsáveis na ponta para garantir a correta execução.",
          "frequency": "C",
					"competence": [
						{
              "id": 3,
              "description": "Strategic Business Vision"
            }
					]
				}
			]
    },
    
    {
			"id": "q43",
			"question": "43. Escolha abaixo apenas um dos comportamentos que precisa ser desenvolvido ou melhorado.",
			"options": [
				{
					"id": 1,
          "description": "Viabiliza que todos tenham as mesmas oportunidades de aprendizado, seja por meio de incentivo ao autodesenvolvimento ou a troca entre pessoas com experiências profissionais diferentes, exemplo: job rotation.",
          "frequency": "G",
					"competence": [
						{
              "id": 7,
              "description": "People Management"
            }
					]
				},
				
				{
					"id": 2,
          "description": "Cria argumentos e condições que viabilizam a retomada do poder de compra do cliente. É flexível em sair do seu padrão de vendas para se adaptar a realidade do cliente, não comprometendo as regras e processos internos.",
          "frequency": "H",
					"competence": [
						{
              "id": 3,
              "description": "Strategic Business Vision"
            }
					]
				}
			]
    },
    
    {
			"id": "q44",
			"question": "44. Escolha abaixo apenas um dos comportamentos que precisa ser desenvolvido ou melhorado.",
			"options": [
				{
					"id": 1,
          "description": "Utiliza as emoções positivamente na sua forma de comunicação, trazendo sempre um equilíbrio entre o desafio e o suporte.",
          "frequency": "I",
					"competence": [
						{
              "id": 1,
              "description": "Communication"
            }
					]
				},
				
				{
					"id": 2,
          "description": "Propõe junto aos clientes ações, exemplo: uma campanha, sendo muito coerente com o foco e as metas da empresa.",
          "frequency": "E",
					"competence": [
						{
              "id": 3,
              "description": "Strategic Business Vision"
            }
					]
				}
			]
    },
    
    {
			"id": "q45",
			"question": "45. Escolha abaixo apenas um dos comportamentos que precisa ser desenvolvido ou melhorado.",
			"options": [
				{
					"id": 1,
          "description": "Mantém um ambiente de confiança e transparência, não tendo em sua gestão problemas relacionados a fofocas ou competitividade que segrega o time.",
          "frequency": "F",
					"competence": [
						{
              "id": 7,
              "description": "People Management"
            }
					]
				},
				
				{
					"id": 2,
          "description": "Possui inteligência emocional para não desanimar e/ou reclamar das ações que não atingiram seu objetivo.",
          "frequency": "A",
					"competence": [
						{
              "id": 4,
              "description": "Negotiation"
            }
					]
				}
			]
    },
    
    {
			"id": "q46",
			"question": "46. Escolha abaixo apenas um dos comportamentos que precisa ser desenvolvido ou melhorado.",
			"options": [
				{
					"id": 1,
          "description": "Apresenta motivação mesmo em situações de conflitos, sendo resiliente e agindo racionalmente.",
          "frequency": "F",
					"competence": [
						{
              "id": 4,
              "description": "Negotiation"
            }
					]
				},
				
				{
					"id": 2,
          "description": "Em seus feedbacks, consegue deixar claro o que é esperado de cada um do seu time, inclusive os desafiando por meio de objetivos individuais.",
          "frequency": "A",
					"competence": [
						{
              "id": 7,
              "description": "People Management"
            }
					]
				}
			]
    },

    {
			"id": "q47",
			"question": "47. Escolha abaixo apenas um dos comportamentos que precisa ser desenvolvido ou melhorado.",
			"options": [
				{
					"id": 1,
          "description": "Sou consciente dos interlocutores que tenho maior dificuldade em manter um relacionamento mais próximo e busco sempre novas formas de aproximação.",
          "frequency": "B",
					"competence": [
						{
              "id": 5,
              "description": "Stakeholder Management"
            }
					]
				},
				
				{
					"id": 2,
          "description": "Dimensiona para sua equipe as tarefas, desafios e objetivos de acordo com as capacidades individuais, equilibrando o 'sair da zona de conforto' com 'desafios de aprendizagem'.",
          "frequency": "B",
					"competence": [
						{
              "id": 7,
              "description": "People Management"
            }
					]
				}
			]
    },
    
    {
			"id": "q48",
			"question": "48. Escolha abaixo apenas um dos comportamentos que precisa ser desenvolvido ou melhorado.",
			"options": [
				{
					"id": 1,
          "description": "Consegue correlacionar na sua estratégia de gestão de contas com cada interlocutor, sabendo quem e como abordar cada um dependendo do tema/produto.",
          "frequency": "C",
					"competence": [
						{
              "id": 5,
              "description": "Stakeholder Management"
            }
					]
				},
				
				{
					"id": 2,
          "description": "Viabiliza que todos tenham as mesmas oportunidades de aprendizado, seja por meio de incentivo ao autodesenvolvimento ou a troca entre pessoas com experiências profissionais diferentes, exemplo: job rotation.",
          "frequency": "G",
					"competence": [
						{
              "id": 7,
              "description": "People Management"
            }
					]
				}
			]
    },
    
    {
			"id": "q49",
			"question": "49. Escolha abaixo apenas um dos comportamentos que precisa ser desenvolvido ou melhorado.",
			"options": [
				{
					"id": 1,
          "description": "Possui informações que cruza possíveis riscos com o perfil do interlocutor que tem influência e poder de decisão.",
          "frequency": "D",
					"competence": [
						{
              "id": 5,
              "description": "Stakeholder Management"
            }
					]
				},
				
				{
					"id": 2,
          "description": "Possui foco na solução e não no problema, mantendo uma postura otimista e flexível.",
          "frequency": "C",
					"competence": [
						{
              "id": 4,
              "description": "Negotiation"
            }
					]
				}
			]
    },
    
    {
			"id": "q50",
			"question": "50. Escolha abaixo apenas um dos comportamentos que precisa ser desenvolvido ou melhorado.",
			"options": [
				{
					"id": 1,
          "description": "Gerencio algumas exceções , garantindo que o cliente seja atendido, tendo sempre em mente o equilíbrio entre os processos internos e a flexibilização possível.",
          "frequency": "F",
					"competence": [
						{
              "id": 6,
              "description": "Planning"
            }
					]
				},
				
				{
					"id": 2,
          "description": "Conhece os pontos fortes e fracos de cada um do time, mantendo conversas mais claras para o desenvolvimento individual.",
          "frequency": "E",
					"competence": [
						{
              "id": 7,
              "description": "People Management"
            }
					]
				}
			]
    },
    
    {
			"id": "q51",
			"question": "51. Agora você vai escolher 10 temas que você identifica como necessários para o seu desenvolvimento. Ou seja, quais dos assuntos abaixo você considera importante para aprender mais.",
			"options": [
				{
					"id": 1,
          "description": "Empreendedorismo",
          "frequency": null,
					"competence": [
						{
              "id": 3,
              "description": "Strategic Business Vision"
            },
            {
              "id": 7,
              "description": "People Management"
            }
					]
				},
				
				{
					"id": 2,
          "description": "Negociação",
          "frequency": null,
					"competence": [
						{
              "id": 4,
              "description": "Negotiation"
            }
					]
        },
        
        {
					"id": 3,
          "description": "Equilíbrio Emocional",
          "frequency": null,
					"competence": [
            {
              "id": 1,
              "description": "Communication"
            },
						{
              "id": 4,
              "description": "Negotiation"
            }
					]
        },
        
        {
					"id": 4,
          "description": "Resistência à Frustração",
          "frequency": null,
					"competence": [
						{
              "id": 4,
              "description": "Negotiation"
            }
					]
        },
        
        {
					"id": 5,
          "description": "Visão de Negócio",
          "frequency": null,
					"competence": [
						{
              "id": 3,
              "description": "Strategic Business Vision"
            }
					]
        },
        
        {
					"id": 6,
          "description": "Planejamento",
          "frequency": null,
					"competence": [
						{
              "id": 6,
              "description": "Planning"
            }
					]
        },
        
        {
					"id": 7,
          "description": "Síntese",
          "frequency": null,
					"competence": [
						{
              "id": 1,
              "description": "Communication"
            }
					]
        },
        
        {
					"id": 8,
          "description": "Administração de Conflitos",
          "frequency": null,
					"competence": [
						{
              "id": 4,
              "description": "Negotiation"
            },
            {
              "id": 5,
              "description": "Stakeholder Management"
            }
					]
        },
        
        {
					"id": 9,
          "description": "Comunicação",
          "frequency": null,
					"competence": [
						{
              "id": 1,
              "description": "Communication"
            }
					]
        },
        
        {
					"id": 10,
          "description": "Foco em Resultados",
          "frequency": null,
					"competence": [
						{
              "id": 2,
              "description": "Customer Focus"
            }
					]
        },
        
        {
					"id": 11,
          "description": "Diagnóstico",
          "frequency": null,
					"competence": [
						{
              "id": 6,
              "description": "Planning"
            }
					]
        },
        
        {
					"id": 12,
          "description": "Pensamento Estratégico",
          "frequency": null,
					"competence": [
						{
              "id": 3,
              "description": "Strategic Business Vision"
            }
					]
        },
        
        {
					"id": 13,
          "description": "Organização",
          "frequency": null,
					"competence": [
						{
              "id": 6,
              "description": "Planning"
            }
					]
        },
        
        {
					"id": 14,
          "description": "Análise Crítica",
          "frequency": null,
					"competence": [
						{
              "id": 6,
              "description": "Planning"
            }
					]
        },
        
        {
					"id": 15,
          "description": "Autoconfiança",
          "frequency": null,
					"competence": [
						{
              "id": 7,
              "description": "People Management"
            }
					]
        },
        
        {
					"id": 16,
          "description": "Capacidade de dar Feedback",
          "frequency": null,
					"competence": [
						{
              "id": 7,
              "description": "People Management"
            }
					]
        },
        
        {
					"id": 17,
          "description": "Criatividade e Inovação",
          "frequency": null,
					"competence": [
						{
              "id": 3,
              "description": "Strategic Business Vision"
            }
					]
        },
        
        {
					"id": 18,
          "description": "Liderança",
          "frequency": null,
					"competence": [
						{
              "id": 7,
              "description": "People Management"
            }
					]
        },
        
        {
					"id": 19,
          "description": "Capacidade de Gerir Mudanças",
          "frequency": null,
					"competence": [
						{
              "id": 7,
              "description": "People Management"
            }
					]
        },
        
        {
					"id": 20,
          "description": "Empatia",
          "frequency": null,
					"competence": [
						{
              "id": 1,
              "description": "Communication"
            },
            {
              "id": 4,
              "description": "Negotiation"
            }
					]
        },
        
        {
					"id": 21,
          "description": "Capacidade de Inspirar Confiança",
          "frequency": null,
					"competence": [
						{
              "id": 7,
              "description": "People Management"
            }
					]
        },
        
        {
					"id": 22,
          "description": "Cumprimento de Prazos",
          "frequency": null,
					"competence": [
						{
              "id": 6,
              "description": "Planning"
            }
					]
        },
        
        {
					"id": 23,
          "description": "Adaptabilidade",
          "frequency": null,
					"competence": [
						{
              "id": 4,
              "description": "Negotiation"
            }
					]
        },
        
        {
					"id": 24,
          "description": "Capacidade de receber Feedback",
          "frequency": null,
					"competence": [
						{
              "id": 1,
              "description": "Communication"
            }
					]
        },
        
        {
					"id": 25,
          "description": "Flexibilidade",
          "frequency": null,
					"competence": [
						{
              "id": 4,
              "description": "Negotiation"
            }
					]
        },
        
        {
					"id": 26,
          "description": "Iniciativa",
          "frequency": null,
					"competence": [
						{
              "id": 3,
              "description": "Strategic Business Vision"
            }
					]
        },
        
        {
					"id": 27,
          "description": "Tomada de decisão",
          "frequency": null,
					"competence": [
						{
              "id": 4,
              "description": "Negotiation"
            }
					]
        },
        
        {
					"id": 28,
          "description": "Produtividade",
          "frequency": null,
					"competence": [
            {
              "id": 2,
              "description": "Customer Focus"
            }
					]
        },
        
        {
					"id": 29,
          "description": "Relacionamento Interpessoal",
          "frequency": null,
					"competence": [
            {
              "id": 5,
              "description": "Stakeholder Management"
            }
					]
        },
        
        {
					"id": 30,
          "description": "Trabalho em Equipe",
          "frequency": null,
					"competence": [
            {
              "id": 5,
              "description": "Stakeholder Management"
            }
					]
        },
        
        {
					"id": 31,
          "description": "Disciplina",
          "frequency": null,
					"competence": [
            {
              "id": 6,
              "description": "Planning"
            }
					]
        },
        
        {
					"id": 32,
          "description": "Resolução de Problemas",
          "frequency": null,
					"competence": [
            {
              "id": 4,
              "description": "Negotiation"
            },
            {
              "id": 5,
              "description": "Stakeholder Management"
            }
					]
        },
        
        {
					"id": 33,
          "description": "Foco no Cliente",
          "frequency": null,
					"competence": [
            {
              "id": 2,
              "description": "Customer Focus"
            }
					]
				}

			]
    },
    
    {
			"id": "q52",
			"question": "52. Para finalizar, você vai escolher 10 capacidades que você identifica como seus pontos fortes em termos de competências.",
			"options": [
				{
					"id": 1,
          "description": "Capacidade de identificar oportunidades e fazer negócios",
          "frequency": null,
					"competence": [
            {
              "id": 2,
              "description": "Customer Focus"
            },
            {
              "id": 5,
              "description": "Stakeholder Management"
            }
					]
        },
        
        {
					"id": 2,
          "description": "Capacidade de convergir interesses, beneficiando ambas as partes",
          "frequency": null,
					"competence": [
            {
              "id": 4,
              "description": "Negotiation"
            },
            {
              "id": 5,
              "description": "Stakeholder Management"
            }
					]
        },

        {
					"id": 3,
          "description": "Capacidade de saber lidar com as emoções",
          "frequency": null,
					"competence": [
            {
              "id": 1,
              "description": "Communication"
            },
            {
              "id": 4,
              "description": "Negotiation"
            }
					]
        },

        {
					"id": 4,
          "description": "Capacidade de suportar pressão",
          "frequency": null,
					"competence": [
            {
              "id": 4,
              "description": "Negotiation"
            }
					]
        },

        {
					"id": 5,
          "description": "Capacidade de seguir ordens e regras",
          "frequency": null,
					"competence": [
            {
              "id": 6,
              "description": "Planning"
            }
					]
        },

        {
					"id": 6,
          "description": "Capacidade de prever, dividir e priorizar tarefas",
          "frequency": null,
					"competence": [
            {
              "id": 6,
              "description": "Planning"
            }
					]
        },

        {
					"id": 7,
          "description": "Capacidade de prever, dividir e priorizar tarefas",
          "frequency": null,
					"competence": [
            {
              "id": 6,
              "description": "Planning"
            }
					]
        },

        {
					"id": 8,
          "description": "Capacidade de reunir dados e chegar a uma visão objetiva",
          "frequency": null,
					"competence": [
            {
              "id": 6,
              "description": "Planning"
            }
					]
        },

        {
					"id": 9,
          "description": "Capacidade de atuar na solução de conflitos",
          "frequency": null,
					"competence": [
            {
              "id": 4,
              "description": "Negotiation"
            },
            {
              "id": 5,
              "description": "Stakeholder Management"
            }
					]
        },

        {
					"id": 10,
          "description": "Capacidade de expressar com clareza seus pensamentos e opiniões",
          "frequency": null,
					"competence": [
            {
              "id": 1,
              "description": "Communication"
            },
            {
              "id": 4,
              "description": "Negotiation"
            }
					]
        },

        {
					"id": 11,
          "description": "Capacidade de desempenhar atividades financeiras",
          "frequency": null,
					"competence": [
            {
              "id": 6,
              "description": "Planning"
            }
					]
        },

        {
					"id": 12,
          "description": "Capacidade de detalhar precisamente uma situação/cenário",
          "frequency": null,
					"competence": [
            {
              "id": 6,
              "description": "Planning"
            }
					]
        },

        {
					"id": 13,
          "description": "Capacidade de projetar ideias, visando o alcance dos objetivos propostos",
          "frequency": null,
					"competence": [
            {
              "id": 3,
              "description": "Strategic Business Vision"
            }
					]
        },

        {
					"id": 14,
          "description": "Capacidade de organizar o tempo e o espaço, prezando a qualidade",
          "frequency": null,
					"competence": [
            {
              "id": 6,
              "description": "Planning"
            }
					]
        },

        {
					"id": 15,
          "description": "Capacidade de emitir opiniões baseadas na análise prévia",
          "frequency": null,
					"competence": [
            {
              "id": 3,
              "description": "Strategic Business Vision"
            }
					]
        },

        {
					"id": 16,
          "description": "Capacidade de valorizar-se e confiar em seus atos e julgamentos",
          "frequency": null,
					"competence": [
            {
              "id": 7,
              "description": "People Management"
            }
					]
        },

        {
					"id": 17,
          "description": "Capacidade de valorizar-se e confiar em seus atos e julgamentos",
          "frequency": null,
					"competence": [
            {
              "id": 7,
              "description": "People Management"
            }
					]
        },

        {
					"id": 18,
          "description": "Capacidade de dar informações sobre o comportamento alheio",
          "frequency": null,
					"competence": [
            {
              "id": 7,
              "description": "People Management"
            }
					]
        },

        {
					"id": 19,
          "description": "Capacidade de criar ou melhorar um produto ou serviço",
          "frequency": null,
					"competence": [
            {
              "id": 3,
              "description": "Strategic Business Vision"
            }
					]
        },

        {
					"id": 20,
          "description": "Capacidade de aplicar conhecimentos nas diversas situações",
          "frequency": null,
					"competence": [
            {
              "id": 3,
              "description": "Strategic Business Vision"
            }
					]
        },

        {
					"id": 21,
          "description": "Capacidade de conduzir e motivar pessoas",
          "frequency": null,
					"competence": [
            {
              "id": 7,
              "description": "People Management"
            }
					]
        },

        {
					"id": 22,
          "description": "Capacidade de incentivar outrem à mudança de comportamento",
          "frequency": null,
					"competence": [
            {
              "id": 7,
              "description": "People Management"
            }
					]
        },

        {
					"id": 23,
          "description": "Capacidade de perceber e compreender os sentimentos e opiniões alheias",
          "frequency": null,
					"competence": [
            {
              "id": 1,
              "description": "Communication"
            },
            {
              "id": 4,
              "description": "Negotiation"
            }
					]
        },

        {
					"id": 24,
          "description": "Capacidade de demonstrar certeza aos outros, fortalecendo a crença.",
          "frequency": null,
					"competence": [
            {
              "id": 7,
              "description": "People Management"
            }
					]
        },

        {
					"id": 25,
          "description": "Capacidade de cumprir os prazos estipulados para realizar as tarefas.",
          "frequency": null,
					"competence": [
            {
              "id": 6,
              "description": "Planning"
            }
					]
        },

        
        {
					"id": 26,
          "description": "Capacidade de trabalhar em situações complexas, ambíguas e variáveis",
          "frequency": null,
					"competence": [
            {
              "id": 6,
              "description": "Planning"
            }
					]
        },

        {
					"id": 27,
          "description": "Capacidade de receber informações sobre seu próprio comportamento",
          "frequency": null,
					"competence": [
            {
              "id": 1,
              "description": "Communication"
            },
            {
              "id": 4,
              "description": "Negotiation"
            }
					]
        },

        {
					"id": 28,
          "description": "Capacidade de abertura para rever suas posições e receber novas ideias",
          "frequency": null,
					"competence": [
            {
              "id": 3,
              "description": "Strategic Business Vision"
            }
					]
        },

        {
					"id": 29,
          "description": "Capacidade de agir com prontidão e independência, criando soluções",
          "frequency": null,
					"competence": [
            {
              "id": 4,
              "description": "Negotiation"
            }
					]
        },

        {
					"id": 30,
          "description": "Capacidade de resolver situações, demonstrando coragem e firmeza",
          "frequency": null,
					"competence": [
            {
              "id": 7,
              "description": "People Management"
            }
					]
        },

        {
					"id": 31,
          "description": "Capacidade de utilizar o tempo, otimizando as atividades e a produção",
          "frequency": null,
					"competence": [
            {
              "id": 6,
              "description": "Planning"
            }
					]
        },

        {
					"id": 32,
          "description": "Capacidade de se relacionar com outras pessoas, criando parcerias",
          "frequency": null,
					"competence": [
            {
              "id": 5,
              "description": "Stakeholder Management"
            }
					]
        },

        {
					"id": 33,
          "description": "Capacidade de interagir, cooperar e se solidarizar com as pessoas",
          "frequency": null,
					"competence": [
            {
              "id": 5,
              "description": "Stakeholder Management"
            }
					]
        },

        {
					"id": 34,
          "description": "Capacidade de cumprir as determinações e diretrizes corporativas",
          "frequency": null,
					"competence": [
            {
              "id": 6,
              "description": "Planning"
            }
					]
        },

        {
					"id": 35,
          "description": "Capacidade de captar objetivamente os dados mais relevantes",
          "frequency": null,
					"competence": [
            {
              "id": 6,
              "description": "Planning"
            }
					]
        },

        {
					"id": 36,
          "description": "Capacidade de executar tarefas que eliminem a causa do problema",
          "frequency": null,
					"competence": [
            {
              "id": 3,
              "description": "Strategic Business Vision"
            }
					]
        },

        {
					"id": 37,
          "description": "Capacidade de atender e satisfazer as necessidades dos clientes",
          "frequency": null,
					"competence": [
            {
              "id": 2,
              "description": "Customer Focus"
            },
            {
              "id": 5,
              "description": "Stakeholder Management"
            }
					]
        }
        
			]
    }
		
	]
}